<?xml version="1.0" encoding="UTF-8"?>
<testsuite xmlns:xsi="http://www.w3.org/2001/XMLSchema-instance" xsi:noNamespaceSchemaLocation="https://maven.apache.org/surefire/maven-surefire-plugin/xsd/surefire-test-report.xsd" name="TestSuite" time="145.613" tests="27" errors="0" skipped="3" failures="2">
  <properties>
    <property name="gopherProxySet" value="false"/>
    <property name="awt.toolkit" value="sun.lwawt.macosx.LWCToolkit"/>
    <property name="file.encoding.pkg" value="sun.io"/>
    <property name="java.specification.version" value="1.8"/>
    <property name="sun.cpu.isalist" value=""/>
    <property name="sun.jnu.encoding" value="UTF-8"/>
    <property name="java.class.path" value="/Users/vipul/Documents/workspace/BookATableApp/target/test-classes:/Users/vipul/Documents/workspace/BookATableApp/target/classes:/Users/vipul/.m2/repository/org/apache/commons/commons-email/1.2/commons-email-1.2.jar:/Users/vipul/.m2/repository/javax/activation/activation/1.1/activation-1.1.jar:/Users/vipul/.m2/repository/javax/mail/mail/1.4/mail-1.4.jar:/Users/vipul/.m2/repository/org/apache/poi/poi/3.7/poi-3.7.jar:/Users/vipul/.m2/repository/org/apache/poi/poi-ooxml/3.17/poi-ooxml-3.17.jar:/Users/vipul/.m2/repository/org/apache/poi/poi-ooxml-schemas/3.17/poi-ooxml-schemas-3.17.jar:/Users/vipul/.m2/repository/org/apache/xmlbeans/xmlbeans/2.6.0/xmlbeans-2.6.0.jar:/Users/vipul/.m2/repository/stax/stax-api/1.0.1/stax-api-1.0.1.jar:/Users/vipul/.m2/repository/com/github/virtuald/curvesapi/1.04/curvesapi-1.04.jar:/Users/vipul/.m2/repository/org/testng/testng/6.10/testng-6.10.jar:/Users/vipul/.m2/repository/com/beust/jcommander/1.48/jcommander-1.48.jar:/Users/vipul/.m2/repository/commons-io/commons-io/2.6/commons-io-2.6.jar:/Users/vipul/.m2/repository/com/aventstack/extentreports/3.1.5/extentreports-3.1.5.jar:/Users/vipul/.m2/repository/org/freemarker/freemarker/2.3.23/freemarker-2.3.23.jar:/Users/vipul/.m2/repository/org/mongodb/mongodb-driver/3.3.0/mongodb-driver-3.3.0.jar:/Users/vipul/.m2/repository/org/mongodb/bson/3.3.0/bson-3.3.0.jar:/Users/vipul/.m2/repository/org/mongodb/mongodb-driver-core/3.3.0/mongodb-driver-core-3.3.0.jar:/Users/vipul/.m2/repository/org/apache/httpcomponents/httpclient/4.5.2/httpclient-4.5.2.jar:/Users/vipul/.m2/repository/org/apache/httpcomponents/httpmime/4.5.2/httpmime-4.5.2.jar:/Users/vipul/.m2/repository/org/jsoup/jsoup/1.9.2/jsoup-1.9.2.jar:/Users/vipul/.m2/repository/com/google/code/gson/gson/2.8.0/gson-2.8.0.jar:/Users/vipul/.m2/repository/io/appium/java-client/5.0.4/java-client-5.0.4.jar:/Users/vipul/.m2/repository/org/seleniumhq/selenium/selenium-support/3.6.0/selenium-support-3.6.0.jar:/Users/vipul/.m2/repository/net/java/dev/jna/jna/4.1.0/jna-4.1.0.jar:/Users/vipul/.m2/repository/net/java/dev/jna/jna-platform/4.1.0/jna-platform-4.1.0.jar:/Users/vipul/.m2/repository/org/seleniumhq/selenium/selenium-api/3.6.0/selenium-api-3.6.0.jar:/Users/vipul/.m2/repository/commons-validator/commons-validator/1.6/commons-validator-1.6.jar:/Users/vipul/.m2/repository/commons-beanutils/commons-beanutils/1.9.2/commons-beanutils-1.9.2.jar:/Users/vipul/.m2/repository/commons-digester/commons-digester/1.8.1/commons-digester-1.8.1.jar:/Users/vipul/.m2/repository/commons-collections/commons-collections/3.2.2/commons-collections-3.2.2.jar:/Users/vipul/.m2/repository/org/springframework/spring-context/5.0.0.RELEASE/spring-context-5.0.0.RELEASE.jar:/Users/vipul/.m2/repository/org/springframework/spring-aop/5.0.0.RELEASE/spring-aop-5.0.0.RELEASE.jar:/Users/vipul/.m2/repository/org/springframework/spring-beans/5.0.0.RELEASE/spring-beans-5.0.0.RELEASE.jar:/Users/vipul/.m2/repository/org/springframework/spring-core/5.0.0.RELEASE/spring-core-5.0.0.RELEASE.jar:/Users/vipul/.m2/repository/org/springframework/spring-jcl/5.0.0.RELEASE/spring-jcl-5.0.0.RELEASE.jar:/Users/vipul/.m2/repository/org/springframework/spring-expression/5.0.0.RELEASE/spring-expression-5.0.0.RELEASE.jar:/Users/vipul/.m2/repository/org/aspectj/aspectjweaver/1.8.11/aspectjweaver-1.8.11.jar:/Users/vipul/.m2/repository/org/openpnp/opencv/3.2.0-1/opencv-3.2.0-1.jar:/Users/vipul/.m2/repository/org/seleniumhq/selenium/selenium-java/3.9.1/selenium-java-3.9.1.jar:/Users/vipul/.m2/repository/org/seleniumhq/selenium/selenium-chrome-driver/3.9.1/selenium-chrome-driver-3.9.1.jar:/Users/vipul/.m2/repository/org/seleniumhq/selenium/selenium-edge-driver/3.9.1/selenium-edge-driver-3.9.1.jar:/Users/vipul/.m2/repository/org/seleniumhq/selenium/selenium-firefox-driver/3.9.1/selenium-firefox-driver-3.9.1.jar:/Users/vipul/.m2/repository/org/seleniumhq/selenium/selenium-ie-driver/3.9.1/selenium-ie-driver-3.9.1.jar:/Users/vipul/.m2/repository/org/seleniumhq/selenium/selenium-opera-driver/3.9.1/selenium-opera-driver-3.9.1.jar:/Users/vipul/.m2/repository/org/seleniumhq/selenium/selenium-remote-driver/3.9.1/selenium-remote-driver-3.9.1.jar:/Users/vipul/.m2/repository/org/seleniumhq/selenium/selenium-safari-driver/3.9.1/selenium-safari-driver-3.9.1.jar:/Users/vipul/.m2/repository/net/bytebuddy/byte-buddy/1.7.9/byte-buddy-1.7.9.jar:/Users/vipul/.m2/repository/org/apache/commons/commons-exec/1.3/commons-exec-1.3.jar:/Users/vipul/.m2/repository/commons-codec/commons-codec/1.10/commons-codec-1.10.jar:/Users/vipul/.m2/repository/commons-logging/commons-logging/1.2/commons-logging-1.2.jar:/Users/vipul/.m2/repository/com/google/guava/guava/23.6-jre/guava-23.6-jre.jar:/Users/vipul/.m2/repository/com/google/code/findbugs/jsr305/1.3.9/jsr305-1.3.9.jar:/Users/vipul/.m2/repository/org/checkerframework/checker-compat-qual/2.0.0/checker-compat-qual-2.0.0.jar:/Users/vipul/.m2/repository/com/google/errorprone/error_prone_annotations/2.1.3/error_prone_annotations-2.1.3.jar:/Users/vipul/.m2/repository/com/google/j2objc/j2objc-annotations/1.1/j2objc-annotations-1.1.jar:/Users/vipul/.m2/repository/org/codehaus/mojo/animal-sniffer-annotations/1.14/animal-sniffer-annotations-1.14.jar:/Users/vipul/.m2/repository/org/apache/httpcomponents/httpcore/4.4.6/httpcore-4.4.6.jar:/Users/vipul/.m2/repository/com/squareup/okhttp3/okhttp/3.9.1/okhttp-3.9.1.jar:/Users/vipul/.m2/repository/com/squareup/okio/okio/1.13.0/okio-1.13.0.jar:/Users/vipul/.m2/repository/cglib/cglib/2.2/cglib-2.2.jar:/Users/vipul/.m2/repository/asm/asm/3.1/asm-3.1.jar:/Users/vipul/.m2/repository/org/apache/commons/commons-lang3/3.1/commons-lang3-3.1.jar:/Users/vipul/.m2/repository/org/apache/maven/surefire/surefire-testng-utils/2.21.0/surefire-testng-utils-2.21.0.jar:/Users/vipul/.m2/repository/org/apache/maven/surefire/surefire-grouper/2.21.0/surefire-grouper-2.21.0.jar:"/>
    <property name="java.vm.vendor" value="Oracle Corporation"/>
    <property name="sun.arch.data.model" value="64"/>
    <property name="java.vendor.url" value="http://java.oracle.com/"/>
    <property name="user.timezone" value=""/>
    <property name="java.vm.specification.version" value="1.8"/>
    <property name="os.name" value="Mac OS X"/>
    <property name="user.country" value="IN"/>
    <property name="sun.java.launcher" value="SUN_STANDARD"/>
    <property name="sun.boot.library.path" value="/Library/Java/JavaVirtualMachines/jdk1.8.0_171.jdk/Contents/Home/jre/lib"/>
    <property name="sun.java.command" value="/Users/vipul/Documents/workspace/BookATableApp/target/surefire/surefirebooter5136741753921152327.jar /Users/vipul/Documents/workspace/BookATableApp/target/surefire 2018-08-27T19-09-31_663-jvmRun1 surefire1258910280979768954tmp surefire_02202788627202491653tmp"/>
    <property name="surefire.test.class.path" value="/Users/vipul/Documents/workspace/BookATableApp/target/test-classes:/Users/vipul/Documents/workspace/BookATableApp/target/classes:/Users/vipul/.m2/repository/org/apache/commons/commons-email/1.2/commons-email-1.2.jar:/Users/vipul/.m2/repository/javax/activation/activation/1.1/activation-1.1.jar:/Users/vipul/.m2/repository/javax/mail/mail/1.4/mail-1.4.jar:/Users/vipul/.m2/repository/org/apache/poi/poi/3.7/poi-3.7.jar:/Users/vipul/.m2/repository/org/apache/poi/poi-ooxml/3.17/poi-ooxml-3.17.jar:/Users/vipul/.m2/repository/org/apache/poi/poi-ooxml-schemas/3.17/poi-ooxml-schemas-3.17.jar:/Users/vipul/.m2/repository/org/apache/xmlbeans/xmlbeans/2.6.0/xmlbeans-2.6.0.jar:/Users/vipul/.m2/repository/stax/stax-api/1.0.1/stax-api-1.0.1.jar:/Users/vipul/.m2/repository/com/github/virtuald/curvesapi/1.04/curvesapi-1.04.jar:/Users/vipul/.m2/repository/org/testng/testng/6.10/testng-6.10.jar:/Users/vipul/.m2/repository/com/beust/jcommander/1.48/jcommander-1.48.jar:/Users/vipul/.m2/repository/commons-io/commons-io/2.6/commons-io-2.6.jar:/Users/vipul/.m2/repository/com/aventstack/extentreports/3.1.5/extentreports-3.1.5.jar:/Users/vipul/.m2/repository/org/freemarker/freemarker/2.3.23/freemarker-2.3.23.jar:/Users/vipul/.m2/repository/org/mongodb/mongodb-driver/3.3.0/mongodb-driver-3.3.0.jar:/Users/vipul/.m2/repository/org/mongodb/bson/3.3.0/bson-3.3.0.jar:/Users/vipul/.m2/repository/org/mongodb/mongodb-driver-core/3.3.0/mongodb-driver-core-3.3.0.jar:/Users/vipul/.m2/repository/org/apache/httpcomponents/httpclient/4.5.2/httpclient-4.5.2.jar:/Users/vipul/.m2/repository/org/apache/httpcomponents/httpmime/4.5.2/httpmime-4.5.2.jar:/Users/vipul/.m2/repository/org/jsoup/jsoup/1.9.2/jsoup-1.9.2.jar:/Users/vipul/.m2/repository/com/google/code/gson/gson/2.8.0/gson-2.8.0.jar:/Users/vipul/.m2/repository/io/appium/java-client/5.0.4/java-client-5.0.4.jar:/Users/vipul/.m2/repository/org/seleniumhq/selenium/selenium-support/3.6.0/selenium-support-3.6.0.jar:/Users/vipul/.m2/repository/net/java/dev/jna/jna/4.1.0/jna-4.1.0.jar:/Users/vipul/.m2/repository/net/java/dev/jna/jna-platform/4.1.0/jna-platform-4.1.0.jar:/Users/vipul/.m2/repository/org/seleniumhq/selenium/selenium-api/3.6.0/selenium-api-3.6.0.jar:/Users/vipul/.m2/repository/commons-validator/commons-validator/1.6/commons-validator-1.6.jar:/Users/vipul/.m2/repository/commons-beanutils/commons-beanutils/1.9.2/commons-beanutils-1.9.2.jar:/Users/vipul/.m2/repository/commons-digester/commons-digester/1.8.1/commons-digester-1.8.1.jar:/Users/vipul/.m2/repository/commons-collections/commons-collections/3.2.2/commons-collections-3.2.2.jar:/Users/vipul/.m2/repository/org/springframework/spring-context/5.0.0.RELEASE/spring-context-5.0.0.RELEASE.jar:/Users/vipul/.m2/repository/org/springframework/spring-aop/5.0.0.RELEASE/spring-aop-5.0.0.RELEASE.jar:/Users/vipul/.m2/repository/org/springframework/spring-beans/5.0.0.RELEASE/spring-beans-5.0.0.RELEASE.jar:/Users/vipul/.m2/repository/org/springframework/spring-core/5.0.0.RELEASE/spring-core-5.0.0.RELEASE.jar:/Users/vipul/.m2/repository/org/springframework/spring-jcl/5.0.0.RELEASE/spring-jcl-5.0.0.RELEASE.jar:/Users/vipul/.m2/repository/org/springframework/spring-expression/5.0.0.RELEASE/spring-expression-5.0.0.RELEASE.jar:/Users/vipul/.m2/repository/org/aspectj/aspectjweaver/1.8.11/aspectjweaver-1.8.11.jar:/Users/vipul/.m2/repository/org/openpnp/opencv/3.2.0-1/opencv-3.2.0-1.jar:/Users/vipul/.m2/repository/org/seleniumhq/selenium/selenium-java/3.9.1/selenium-java-3.9.1.jar:/Users/vipul/.m2/repository/org/seleniumhq/selenium/selenium-chrome-driver/3.9.1/selenium-chrome-driver-3.9.1.jar:/Users/vipul/.m2/repository/org/seleniumhq/selenium/selenium-edge-driver/3.9.1/selenium-edge-driver-3.9.1.jar:/Users/vipul/.m2/repository/org/seleniumhq/selenium/selenium-firefox-driver/3.9.1/selenium-firefox-driver-3.9.1.jar:/Users/vipul/.m2/repository/org/seleniumhq/selenium/selenium-ie-driver/3.9.1/selenium-ie-driver-3.9.1.jar:/Users/vipul/.m2/repository/org/seleniumhq/selenium/selenium-opera-driver/3.9.1/selenium-opera-driver-3.9.1.jar:/Users/vipul/.m2/repository/org/seleniumhq/selenium/selenium-remote-driver/3.9.1/selenium-remote-driver-3.9.1.jar:/Users/vipul/.m2/repository/org/seleniumhq/selenium/selenium-safari-driver/3.9.1/selenium-safari-driver-3.9.1.jar:/Users/vipul/.m2/repository/net/bytebuddy/byte-buddy/1.7.9/byte-buddy-1.7.9.jar:/Users/vipul/.m2/repository/org/apache/commons/commons-exec/1.3/commons-exec-1.3.jar:/Users/vipul/.m2/repository/commons-codec/commons-codec/1.10/commons-codec-1.10.jar:/Users/vipul/.m2/repository/commons-logging/commons-logging/1.2/commons-logging-1.2.jar:/Users/vipul/.m2/repository/com/google/guava/guava/23.6-jre/guava-23.6-jre.jar:/Users/vipul/.m2/repository/com/google/code/findbugs/jsr305/1.3.9/jsr305-1.3.9.jar:/Users/vipul/.m2/repository/org/checkerframework/checker-compat-qual/2.0.0/checker-compat-qual-2.0.0.jar:/Users/vipul/.m2/repository/com/google/errorprone/error_prone_annotations/2.1.3/error_prone_annotations-2.1.3.jar:/Users/vipul/.m2/repository/com/google/j2objc/j2objc-annotations/1.1/j2objc-annotations-1.1.jar:/Users/vipul/.m2/repository/org/codehaus/mojo/animal-sniffer-annotations/1.14/animal-sniffer-annotations-1.14.jar:/Users/vipul/.m2/repository/org/apache/httpcomponents/httpcore/4.4.6/httpcore-4.4.6.jar:/Users/vipul/.m2/repository/com/squareup/okhttp3/okhttp/3.9.1/okhttp-3.9.1.jar:/Users/vipul/.m2/repository/com/squareup/okio/okio/1.13.0/okio-1.13.0.jar:/Users/vipul/.m2/repository/cglib/cglib/2.2/cglib-2.2.jar:/Users/vipul/.m2/repository/asm/asm/3.1/asm-3.1.jar:/Users/vipul/.m2/repository/org/apache/commons/commons-lang3/3.1/commons-lang3-3.1.jar:/Users/vipul/.m2/repository/org/apache/maven/surefire/surefire-testng-utils/2.21.0/surefire-testng-utils-2.21.0.jar:/Users/vipul/.m2/repository/org/apache/maven/surefire/surefire-grouper/2.21.0/surefire-grouper-2.21.0.jar:"/>
    <property name="sun.cpu.endian" value="little"/>
    <property name="user.home" value="/Users/vipul"/>
    <property name="user.language" value="en"/>
    <property name="java.specification.vendor" value="Oracle Corporation"/>
    <property name="java.home" value="/Library/Java/JavaVirtualMachines/jdk1.8.0_171.jdk/Contents/Home/jre"/>
    <property name="basedir" value="/Users/vipul/Documents/workspace/BookATableApp"/>
    <property name="file.separator" value="/"/>
    <property name="line.separator" value="&#10;"/>
    <property name="java.vm.specification.vendor" value="Oracle Corporation"/>
    <property name="java.specification.name" value="Java Platform API Specification"/>
    <property name="java.awt.graphicsenv" value="sun.awt.CGraphicsEnvironment"/>
    <property name="surefire.real.class.path" value="/Users/vipul/Documents/workspace/BookATableApp/target/surefire/surefirebooter5136741753921152327.jar"/>
    <property name="sun.boot.class.path" value="/Library/Java/JavaVirtualMachines/jdk1.8.0_171.jdk/Contents/Home/jre/lib/resources.jar:/Library/Java/JavaVirtualMachines/jdk1.8.0_171.jdk/Contents/Home/jre/lib/rt.jar:/Library/Java/JavaVirtualMachines/jdk1.8.0_171.jdk/Contents/Home/jre/lib/sunrsasign.jar:/Library/Java/JavaVirtualMachines/jdk1.8.0_171.jdk/Contents/Home/jre/lib/jsse.jar:/Library/Java/JavaVirtualMachines/jdk1.8.0_171.jdk/Contents/Home/jre/lib/jce.jar:/Library/Java/JavaVirtualMachines/jdk1.8.0_171.jdk/Contents/Home/jre/lib/charsets.jar:/Library/Java/JavaVirtualMachines/jdk1.8.0_171.jdk/Contents/Home/jre/lib/jfr.jar:/Library/Java/JavaVirtualMachines/jdk1.8.0_171.jdk/Contents/Home/jre/classes"/>
    <property name="sun.management.compiler" value="HotSpot 64-Bit Tiered Compilers"/>
    <property name="java.runtime.version" value="1.8.0_171-b11"/>
    <property name="user.name" value="vipul"/>
    <property name="path.separator" value=":"/>
    <property name="os.version" value="10.13.3"/>
    <property name="java.endorsed.dirs" value="/Library/Java/JavaVirtualMachines/jdk1.8.0_171.jdk/Contents/Home/jre/lib/endorsed"/>
    <property name="java.runtime.name" value="Java(TM) SE Runtime Environment"/>
    <property name="file.encoding" value="UTF-8"/>
    <property name="java.vm.name" value="Java HotSpot(TM) 64-Bit Server VM"/>
    <property name="localRepository" value="/Users/vipul/.m2/repository"/>
    <property name="java.vendor.url.bug" value="http://bugreport.sun.com/bugreport/"/>
    <property name="java.io.tmpdir" value="/var/folders/rk/0clxdjms1pz0j_v63xgtgc_r0000gp/T/"/>
    <property name="java.version" value="1.8.0_171"/>
    <property name="user.dir" value="/Users/vipul/Documents/workspace/BookATableApp"/>
    <property name="os.arch" value="x86_64"/>
    <property name="java.vm.specification.name" value="Java Virtual Machine Specification"/>
    <property name="java.awt.printerjob" value="sun.lwawt.macosx.CPrinterJob"/>
    <property name="sun.os.patch.level" value="unknown"/>
    <property name="java.library.path" value="/Users/vipul/Library/Java/Extensions:/Library/Java/Extensions:/Network/Library/Java/Extensions:/System/Library/Java/Extensions:/usr/lib/java:."/>
    <property name="java.vm.info" value="mixed mode"/>
    <property name="java.vendor" value="Oracle Corporation"/>
    <property name="java.vm.version" value="25.171-b11"/>
    <property name="java.ext.dirs" value="/Users/vipul/Library/Java/Extensions:/Library/Java/JavaVirtualMachines/jdk1.8.0_171.jdk/Contents/Home/jre/lib/ext:/Library/Java/Extensions:/Network/Library/Java/Extensions:/System/Library/Java/Extensions:/usr/lib/java"/>
    <property name="sun.io.unicode.encoding" value="UnicodeBig"/>
    <property name="java.class.version" value="52.0"/>
  </properties>
  <testcase name="appLaunchALLOWPermissionPopUp" classname="com.BookATable.TestSplashScreen" time="2.379"/>
  <testcase name="searchByLocation" classname="com.BookATable.TestSearchByLocation" time="11.994"/>
  <testcase name="selectFirstRecordForLocationSearch" classname="com.BookATable.TestSearchByLocation" time="0.614"/>
  <testcase name="verifyRestaurantNameAndAddress" classname="com.BookATable.TestSearchByLocation" time="1.875"/>
  <testcase name="verifyVerticalScrollInRestaurantList" classname="com.BookATable.TestSearchByLocation" time="14.678"/>
  <testcase name="selectFirstRestaurantFromTheList" classname="com.BookATable.TestSearchByLocation" time="2.686"/>
  <testcase name="tapOnContactTab" classname="com.BookATable.TestSearchByLocation" time="0.35"/>
  <testcase name="tapOnMapViewToFullScreen" classname="com.BookATable.TestToVerifyMaps" time="1.111"/>
  <testcase name="tapOnMapBluePin" classname="com.BookATable.TestToVerifyMaps" time="3.775"/>
  <testcase name="getTextOnMapBluePin" classname="com.BookATable.TestToVerifyMaps" time="0.813"/>
  <testcase name="tapOnBookNowButton" classname="com.BookATable.TestToVerifyMaps" time="0.707"/>
  <testcase name="tapOnCloseBDAScreen" classname="com.BookATable.TestToVerifyMaps" time="14.006"/>
  <testcase name="tapOnDoneButtonOnFullView" classname="com.BookATable.TestToVerifyMaps" time="3.265"/>
  <testcase name="tapOnPhoneNumber" classname="com.BookATable.TestToVerifyContacts" time="3.925"/>
  <testcase name="tapOnCancelCallButton" classname="com.BookATable.TestToVerifyContacts" time="0.749"/>
  <testcase name="tapOnInfoTab" classname="com.BookATable.TestToVerifyImages" time="0.154"/>
  <testcase name="tapOnImageViewToFullScreen" classname="com.BookATable.TestToVerifyImages" time="39.435"/>
  <testcase name="swipeImage" classname="com.BookATable.TestToVerifyImages" time="0.553"/>
  <testcase name="tapOnBookNowButton" classname="com.BookATable.TestToVerifyImages" time="1.236"/>
  <testcase name="tapOnCloseBDAScreen" classname="com.BookATable.TestToVerifyImages" time="0.311"/>
  <testcase name="tapOnDoneButtonOnFullView" classname="com.BookATable.TestToVerifyImages" time="1.796"/>
  <testcase name="tapOnBookNowButton" classname="com.BookATable.TestSearchByLocation" time="0.296"/>
  <testcase name="selectCalendarDateforBooking" classname="com.BookATable.TestSearchByLocation" time="22.48">
    <failure message="Index: 0, Size: 0" type="java.lang.IndexOutOfBoundsException">java.lang.IndexOutOfBoundsException: Index: 0, Size: 0
	at com.BookATable.TestSearchByLocation.selectCalendarDateforBooking(TestSearchByLocation.java:240)
</failure>
    <system-out><![CDATA[Calender event was not found
Failed to selectd date from the calendar.
Book button was not found
Book Button could not be clicked.
Time Slot has been Selected
Time slot has been selected.
]]></system-out>
  </testcase>
  <testcase name="getResult" classname="com.BookATable.TestSearchByLocation" time="25.236">
    <failure type="java.lang.NullPointerException">java.lang.NullPointerException
</failure>
  </testcase>
  <testcase name="getResult" classname="com.BookATable.TestSearchByLocation" time="0">
    <skipped/>
  </testcase>
  <testcase name="tapOnDONEButton" classname="com.BookATable.TestSearchByLocation" time="0">
    <skipped/>
  </testcase>
  <testcase name="sendMail" classname="com.BookATable.TestSplashScreen" time="0">
    <skipped/>
  </testcase>
</testsuite>