/Users/vipul/Documents/workspace/BookATableApp/src/test/java/com/BookATable/ReportListener.java
/Users/vipul/Documents/workspace/BookATableApp/src/test/java/com/BookATable/LocalizationConfigReader.java
/Users/vipul/Documents/workspace/BookATableApp/src/test/java/com/BookATable/TestSearchByLocation.java
/Users/vipul/Documents/workspace/BookATableApp/src/test/java/com/BookATable/TestToVerifyCancelBooking.java
/Users/vipul/Documents/workspace/BookATableApp/src/test/java/com/BookATable/TestToVerifyContacts.java
/Users/vipul/Documents/workspace/BookATableApp/src/test/java/com/BookATable/TestSplashScreen.java
/Users/vipul/Documents/workspace/BookATableApp/src/test/java/com/BookATable/TestGermanLanguage.java
/Users/vipul/Documents/workspace/BookATableApp/src/test/java/com/BookATable/TestToVerifyImages.java
/Users/vipul/Documents/workspace/BookATableApp/src/test/java/com/BookATable/BaseTestInitializeClass.java
/Users/vipul/Documents/workspace/BookATableApp/src/test/java/com/BookATable/TestFunctionalityOfSearchBox.java
/Users/vipul/Documents/workspace/BookATableApp/src/test/java/com/BookATable/TestToVerifyMaps.java
/Users/vipul/Documents/workspace/BookATableApp/src/test/java/com/BookATable/TestSearchByRestaurant.java
